Calculate statistics for the given dataset — create_statistics • forrescalc
…
#> Delimiter: ","
#> chr (2): forest_reserve, plottype
#> dbl (4): plot_id, period, survey_number, year_dendro
#> lgl (7): survey_trees, survey_deadw, survey_veg, survey_reg, game_impact_veg...
#> 
#> ℹ Use `spec()` to retrieve the full column specification for this data.
#> ℹ Specify the column types or set `show_col_types = FALSE` to quiet this message.
#> Warning: The dataset only contains presence data and lacks zero observations (except for 1 observation per plot_id and period to indicate that observations are done).  Please use function add_zeros() to add zero observations when needed.
create_statistics(
  dataset = dendro_by_diam_plot_species,
  level = c("forest_reserve", "year", "species", "dbh_class_5cm"),
  variables = c("basal_area_alive_m2_ha", "basal_area_dead_m2_ha")
)
#> Warning: Are you sure you don't want to include period in level? Your dataset has measurements in different periods.
#> # A tibble: 124 × 11
#>    forest_reserve  year species dbh_class_5cm variable      n_obs  mean variance
#>    <chr>          <dbl>   <dbl> <chr>         <chr>         <int> <dbl>    <dbl>
#>  1 Everzwijnbad    2002      16 10 - 15 cm    basal_area_a…     1 1.35        NA
#>  2 Everzwijnbad    2002      16 10 - 15 cm    basal_area_d…     1 0           NA
#>  3 Everzwijnbad    2002      16 5 - 10 cm     basal_area_a…     1 0.198       NA
#>  4 Everzwijnbad    2002      16 5 - 10 cm     basal_area_d…     1 0           NA
#>  5 Everzwijnbad    2002      28 5 - 10 cm     basal_area_a…     1 0.944       NA
#>  6 Everzwijnbad    2002      28 5 - 10 cm     basal_area_d…     1 0           NA
#>  7 Everzwijnbad    2002      87 10 - 15 cm    basal_area_a…     1 0           NA
#>  8 Everzwijnbad    2002      87 10 - 15 cm    basal_area_d…     1 0           NA
#>  9 Everzwijnbad    2002      87 35 - 40 cm    basal_area_a…     1 3.78        NA
#> 10 Everzwijnbad    2002      87 35 - 40 cm    basal_area_d…     1 0           NA
#> # ℹ 114 more rows
#> # ℹ 3 more variables: lci <dbl>, uci <dbl>, logaritmic <lgl>
…
#> Rows: 17 Columns: 13
#> ── Column specification ────────────────────────────────────────────────────────
#> Delimiter: ","
#> chr (2): forest_reserve, plottype
#> dbl (4): plot_id, period, survey_number, year_dendro
#> lgl (7): survey_trees, survey_deadw, survey_veg, survey_reg, game_impact_veg...
#> 
#> ℹ Use `spec()` to retrieve the full column specification for this data.
#> ℹ Specify the column types or set `show_col_types = FALSE` to quiet this message.
#> Warning: The dataset only contains presence data and lacks zero observations (except for 1 observation per plot_id and period to indicate that observations are done).  Please use function add_zeros() to add zero observations when needed.
create_statistics(dataset = veg_by_plot,
  level = c("forest_reserve", "period", "plottype"),
  variables = c("number_of_species", "shrub_cover", "tree_cover")
)
#> # A tibble: 24 × 10
#>    forest_reserve   period plottype variable    n_obs  mean variance   lci   uci
#>    <chr>             <dbl> <chr>    <chr>       <int> <dbl>    <dbl> <dbl> <dbl>
#>  1 Everzwijnbad          1 CP       number_of_…     1   2   NA        NA      NA
#>  2 Everzwijnbad          1 CP       shrub_cover     1  39.7  0.00411  35.0    45
#>  3 Everzwijnbad          1 CP       tree_cover      1  90    6.51     85      95
#>  4 Everzwijnbad          2 CP       number_of_…     1   2   NA        NA      NA
#>  5 Everzwijnbad          2 CP       shrub_cover     1  29.6  0.00737  25.0    35
#>  6 Everzwijnbad          2 CP       tree_cover      1  90    6.51     85      95
#>  7 Kersselaerspleyn      1 CP       number_of_…     1   1   NA        NA      NA
#>  8 Kersselaerspleyn      1 CP       shrub_cover     1  NA   NA        NA      NA
#>  9 Kersselaerspleyn      1 CP       tree_cover      1  NA   NA        NA      NA
#> 10 Kersselaerspleyn      2 CP       number_of_…     1   1   NA        NA      NA
#> # ℹ 14 more rows
#> # ℹ 1 more variable: logaritmic <lgl>
…
